127.0.0.1 - - [28/Nov/2023:14:30:45 +0530] "GET / HTTP/1.1" 404 751
0:0:0:0:0:0:0:1 - - [28/Nov/2023:14:30:46 +0530] "GET /EmpWebApp/Login.html HTTP/1.1" 304 -
0:0:0:0:0:0:0:1 - - [28/Nov/2023:14:30:46 +0530] "GET /favicon.ico HTTP/1.1" 404 762
0:0:0:0:0:0:0:1 - - [28/Nov/2023:14:31:07 +0530] "POST /EmpWebApp/LoginServlet HTTP/1.1" 200 644
0:0:0:0:0:0:0:1 - - [28/Nov/2023:14:31:09 +0530] "GET /EmpWebApp/GetEmployeeById.jsp HTTP/1.1" 200 1110
0:0:0:0:0:0:0:1 - - [28/Nov/2023:14:31:15 +0530] "POST /EmpWebApp/GetEmployeeById HTTP/1.1" 200 1339
0:0:0:0:0:0:0:1 - - [28/Nov/2023:14:31:19 +0530] "GET /EmpWebApp/GetAllEmployees HTTP/1.1" 200 2261
127.0.0.1 - - [28/Nov/2023:15:18:24 +0530] "GET / HTTP/1.1" 404 751
0:0:0:0:0:0:0:1 - - [28/Nov/2023:15:18:33 +0530] "POST /EmpWebApp/LoginServlet HTTP/1.1" 200 644
0:0:0:0:0:0:0:1 - - [28/Nov/2023:15:18:37 +0530] "GET /EmpWebApp/GetAllEmployees HTTP/1.1" 200 2856
0:0:0:0:0:0:0:1 - - [28/Nov/2023:15:18:37 +0530] "GET /EmpWebApp/GetAllEmployees HTTP/1.1" 200 2856
0:0:0:0:0:0:0:1 - - [28/Nov/2023:15:18:44 +0530] "GET /EmpWebApp/DeleteEmployee?empId=4 HTTP/1.1" 200 2624
0:0:0:0:0:0:0:1 - - [28/Nov/2023:15:18:48 +0530] "GET /EmpWebApp/GetEmployeeById.jsp HTTP/1.1" 200 1110
0:0:0:0:0:0:0:1 - - [28/Nov/2023:15:18:53 +0530] "POST /EmpWebApp/GetEmployeeById HTTP/1.1" 200 1333
0:0:0:0:0:0:0:1 - - [28/Nov/2023:15:18:55 +0530] "GET /EmpWebApp/GetAllEmployees HTTP/1.1" 200 2624
0:0:0:0:0:0:0:1 - - [28/Nov/2023:15:23:56 +0530] "GET /EmpWebApp/GetEmployeeById.jsp HTTP/1.1" 200 1110
